Engine/Binaries/Win64/UE4Game.pdb	2019-06-22T09:25:23.518Z
Engine/Content/SlateDebug/Fonts/LastResort.tps	2019-05-03T18:37:12.521Z
Engine/Content/SlateDebug/Fonts/LastResort.ttf	2019-05-03T18:37:12.539Z
Engine/Binaries/ThirdParty/PhysX3/Win64/VS2015/PxFoundationPROFILE_x64.pdb	2019-05-03T18:34:03.439Z
Engine/Binaries/ThirdParty/PhysX3/Win64/VS2015/PxPvdSDKPROFILE_x64.pdb	2019-05-03T18:34:03.715Z
Engine/Binaries/ThirdParty/PhysX3/Win64/VS2015/PhysX3PROFILE_x64.pdb	2019-05-03T18:34:02.588Z
Engine/Binaries/ThirdParty/PhysX3/Win64/VS2015/PhysX3CookingPROFILE_x64.pdb	2019-05-03T18:34:00.213Z
Engine/Binaries/ThirdParty/PhysX3/Win64/VS2015/PhysX3CommonPROFILE_x64.pdb	2019-05-03T18:33:59.732Z
Engine/Binaries/ThirdParty/PhysX3/Win64/VS2015/APEX_ClothingPROFILE_x64.pdb	2019-05-03T18:33:42.558Z
Engine/Binaries/ThirdParty/PhysX3/Win64/VS2015/APEX_LegacyPROFILE_x64.pdb	2019-05-03T18:33:49.668Z
Engine/Binaries/ThirdParty/PhysX3/Win64/VS2015/ApexFrameworkPROFILE_x64.pdb	2019-05-03T18:33:52.893Z
Engine/Binaries/ThirdParty/PhysX3/Win64/VS2015/NvClothPROFILE_x64.pdb	2019-05-03T18:33:53.573Z
